<?xml version="1.0" encoding="UTF-8" standalone="no"?>
<svg width="32px" height="32px" viewBox="0 0 32 32" version="1.1" xmlns="http://www.w3.org/2000/svg" xmlns:xlink="http://www.w3.org/1999/xlink" xmlns:sketch="http://www.bohemiancoding.com/sketch/ns">
    <!-- Generator: bin/sketchtool 1.4 (305) - http://www.bohemiancoding.com/sketch -->
    <title>Logo</title>
    <desc>Created with bin/sketchtool.</desc>
    <defs></defs>
    <g id="Styleguide" stroke="none" stroke-width="1" fill="none" fill-rule="evenodd" sketch:type="MSPage">
        <g sketch:type="MSArtboardGroup" transform="translate(-159.000000, -623.000000)" id="UI_icons" fill="#FFFFFF">
            <g sketch:type="MSLayerGroup" transform="translate(150.000000, 527.000000)">
                <g id="Icons" transform="translate(0.000000, 87.000000)" sketch:type="MSShapeGroup">
                    <g id="Logo">
                        <rect id="bg" opacity="0" x="0" y="0" width="50" height="50"></rect>
                        <path d="M15.3993966,41 L9,34.6012068 L34.6006034,9 L41,15.4018101 L15.3993966,41"></path>
                    </g>
                </g>
            </g>
        </g>
    </g>
</svg>